INDEX VERSION 1.131+D:\PROGI-projekt\VeleByte\.metadata\.plugins\org.eclipse.jdt.core
1988296039.index
15265850.index
2374794569.index
2848309631.index
2035049712.index
342876690.index
869752178.index
2185741664.index
3152641488.index
2582672466.index
915045264.index
2392727824.index
2937395081.index
1898980170.index
1039034272.index
3927350979.index
1653793570.index
1591058214.index
3195745010.index
1499385499.index
3995006721.index
3018714521.index
1308360928.index
3032690905.index
3453069279.index
4162966949.index
227818827.index
2930063314.index
3260115760.index
2439416618.index
1679365822.index
1555717111.index
509603258.index
706349464.index
1748121471.index
2575201365.index
2686417847.index
1435243683.index
897519007.index
40986431.index
1706719038.index
3152306830.index
3256909084.index
2313428795.index
3937658940.index
1338420247.index
1970946024.index
3190513129.index
1567076784.index
3344016644.index
644171249.index
3232046432.index
2113962196.index
2085271322.index
52070413.index
3924553224.index
2379956207.index
3962670740.index
704598926.index
2770165347.index
4284496476.index
2924286659.index
1053482993.index
1595562893.index
1053341990.index
2625260763.index
1104366644.index
453599632.index
2214117624.index
2508469290.index
3451576602.index
388351771.index
3906055295.index
2719846348.index
382479640.index
2318453227.index
1252256999.index
4275565563.index
2422555076.index
3628489624.index
3852636483.index
2614718777.index
1121543617.index
2761342908.index
1043064378.index
3450739561.index
1484614671.index
4122326163.index
3560773230.index
2054227138.index
2487034575.index
1442090197.index
1456368911.index
