\relax 
\providecommand\hyper@newdestlabel[2]{}
\@writefile{toc}{\contentsline {chapter}{\numberline {4}Arhitektura i dizajn sustava}{28}{chapter.4}\protected@file@percent }
\@writefile{lof}{\addvspace {10\p@ }}
\@writefile{lot}{\addvspace {10\p@ }}
\@writefile{lof}{\contentsline {figure}{\numberline {4.1}{\ignorespaces Arhitektura sustava}}{28}{figure.4.1}\protected@file@percent }
\gdef \LT@ii {\LT@entry 
    {3}{123.35861pt}\LT@entry 
    {3}{78.73517pt}\LT@entry 
    {3}{233.51724pt}}
\@writefile{toc}{\contentsline {section}{\numberline {4.1}Baza podataka}{29}{section.4.1}\protected@file@percent }
\@writefile{toc}{\contentsline {subsection}{\numberline {4.1.1}Opis tablica}{29}{subsection.4.1.1}\protected@file@percent }
\gdef \LT@iii {\LT@entry 
    {3}{87.427pt}\LT@entry 
    {3}{87.02701pt}\LT@entry 
    {3}{261.15671pt}}
\gdef \LT@iv {\LT@entry 
    {3}{106.44965pt}\LT@entry 
    {3}{82.63724pt}\LT@entry 
    {3}{246.52414pt}}
\gdef \LT@v {\LT@entry 
    {3}{87.427pt}\LT@entry 
    {3}{87.02701pt}\LT@entry 
    {3}{261.15671pt}}
\gdef \LT@vi {\LT@entry 
    {3}{87.427pt}\LT@entry 
    {3}{87.02701pt}\LT@entry 
    {3}{261.15671pt}}
\gdef \LT@vii {\LT@entry 
    {3}{109.28741pt}\LT@entry 
    {3}{72.70464pt}\LT@entry 
    {3}{253.61856pt}}
\gdef \LT@viii {\LT@entry 
    {3}{106.44965pt}\LT@entry 
    {3}{82.63724pt}\LT@entry 
    {3}{246.52414pt}}
\gdef \LT@ix {\LT@entry 
    {3}{106.44965pt}\LT@entry 
    {3}{82.63724pt}\LT@entry 
    {3}{246.52414pt}}
\gdef \LT@x {\LT@entry 
    {3}{87.427pt}\LT@entry 
    {3}{87.02701pt}\LT@entry 
    {3}{261.15671pt}}
\gdef \LT@xi {\LT@entry 
    {3}{87.427pt}\LT@entry 
    {3}{87.02701pt}\LT@entry 
    {3}{261.15671pt}}
\gdef \LT@xii {\LT@entry 
    {3}{87.427pt}\LT@entry 
    {3}{87.02701pt}\LT@entry 
    {3}{261.15671pt}}
\gdef \LT@xiii {\LT@entry 
    {3}{87.427pt}\LT@entry 
    {3}{87.02701pt}\LT@entry 
    {3}{261.15671pt}}
\@writefile{toc}{\contentsline {subsection}{\numberline {4.1.2}Dijagram baze podataka}{33}{subsection.4.1.2}\protected@file@percent }
\@writefile{toc}{\contentsline {section}{\numberline {4.2}Dijagram razreda}{34}{section.4.2}\protected@file@percent }
\@writefile{lof}{\contentsline {figure}{\numberline {4.2}{\ignorespaces Dijagram razreda - frontend }}{34}{figure.4.2}\protected@file@percent }
\@writefile{lof}{\contentsline {figure}{\numberline {4.3}{\ignorespaces Dijagram razreda - kontroleri}}{35}{figure.4.3}\protected@file@percent }
\@writefile{lof}{\contentsline {figure}{\numberline {4.4}{\ignorespaces Dijagram razreda - odnos klasa iz baze podataka }}{36}{figure.4.4}\protected@file@percent }
\@writefile{lof}{\contentsline {figure}{\numberline {4.5}{\ignorespaces Dijagram razreda - JSON paketi }}{37}{figure.4.5}\protected@file@percent }
\@writefile{lof}{\contentsline {figure}{\numberline {4.6}{\ignorespaces Dijagram razreda - servisi }}{38}{figure.4.6}\protected@file@percent }
\@writefile{toc}{\contentsline {section}{\numberline {4.3}Dijagram stanja}{39}{section.4.3}\protected@file@percent }
\@writefile{lof}{\contentsline {figure}{\numberline {4.7}{\ignorespaces Dijagram stanja - registrirani korisnik }}{40}{figure.4.7}\protected@file@percent }
\@writefile{toc}{\contentsline {section}{\numberline {4.4}Dijagram aktivnosti}{41}{section.4.4}\protected@file@percent }
\@writefile{lof}{\contentsline {figure}{\numberline {4.8}{\ignorespaces Dijagram aktivnosti - pregled drugog korisnika i njegovih podataka preko liste korisnika }}{41}{figure.4.8}\protected@file@percent }
\@writefile{toc}{\contentsline {section}{\numberline {4.5}Dijagram komponenti}{42}{section.4.5}\protected@file@percent }
\@writefile{lof}{\contentsline {figure}{\numberline {4.9}{\ignorespaces Dijagram komponenti}}{42}{figure.4.9}\protected@file@percent }
\@setckpt{Arhitektura}{
\setcounter{page}{43}
\setcounter{equation}{0}
\setcounter{enumi}{4}
\setcounter{enumii}{2}
\setcounter{enumiii}{0}
\setcounter{enumiv}{0}
\setcounter{footnote}{0}
\setcounter{mpfootnote}{0}
\setcounter{part}{0}
\setcounter{chapter}{4}
\setcounter{section}{5}
\setcounter{subsection}{0}
\setcounter{subsubsection}{0}
\setcounter{paragraph}{0}
\setcounter{subparagraph}{0}
\setcounter{figure}{9}
\setcounter{table}{12}
\setcounter{parentequation}{0}
\setcounter{LT@tables}{13}
\setcounter{LT@chunks}{3}
\setcounter{Item}{184}
\setcounter{Hfootnote}{0}
\setcounter{bookmark@seq@number}{15}
\setcounter{float@type}{4}
\setcounter{section@level}{0}
}
