\relax 
\providecommand\hyper@newdestlabel[2]{}
\@writefile{toc}{\contentsline {chapter}{\numberline {5}Implementacija i korisničko sučelje}{43}{chapter.5}\protected@file@percent }
\@writefile{lof}{\addvspace {10\p@ }}
\@writefile{lot}{\addvspace {10\p@ }}
\@writefile{toc}{\contentsline {section}{\numberline {5.1}Korištene tehnologije i alati}{43}{section.5.1}\protected@file@percent }
\@writefile{toc}{\contentsline {section}{\numberline {5.2}Ispitivanje programskog rješenja}{44}{section.5.2}\protected@file@percent }
\@writefile{toc}{\contentsline {subsection}{\numberline {5.2.1}Ispitivanje komponenti}{44}{subsection.5.2.1}\protected@file@percent }
\@writefile{lof}{\contentsline {figure}{\numberline {5.1}{\ignorespaces Testovi 1 i 2}}{44}{figure.5.1}\protected@file@percent }
\@writefile{lof}{\contentsline {figure}{\numberline {5.2}{\ignorespaces Testovi 3 i 4}}{44}{figure.5.2}\protected@file@percent }
\@writefile{lof}{\contentsline {figure}{\numberline {5.3}{\ignorespaces Testovi 5 i 6}}{45}{figure.5.3}\protected@file@percent }
\@writefile{lof}{\contentsline {figure}{\numberline {5.4}{\ignorespaces Testovi 7 i 8}}{46}{figure.5.4}\protected@file@percent }
\@writefile{lof}{\contentsline {figure}{\numberline {5.5}{\ignorespaces Testovi 9 i 10}}{46}{figure.5.5}\protected@file@percent }
\@writefile{lof}{\contentsline {figure}{\numberline {5.6}{\ignorespaces Ispis testova}}{47}{figure.5.6}\protected@file@percent }
\@writefile{toc}{\contentsline {subsection}{\numberline {5.2.2}Ispitivanje sustava}{48}{subsection.5.2.2}\protected@file@percent }
\@writefile{lof}{\contentsline {figure}{\numberline {5.7}{\ignorespaces Registracija igrača}}{48}{figure.5.7}\protected@file@percent }
\@writefile{lof}{\contentsline {figure}{\numberline {5.8}{\ignorespaces Obavijest o poslanom mailu za aktivaciju računa igrača}}{49}{figure.5.8}\protected@file@percent }
\@writefile{lof}{\contentsline {figure}{\numberline {5.9}{\ignorespaces Igrač može otvaranjem dobivenog linka aktivirati svoj korisnički račun}}{50}{figure.5.9}\protected@file@percent }
\@writefile{lof}{\contentsline {figure}{\numberline {5.10}{\ignorespaces Nakon aktivacije računa, igrač dobiva obavijest o uspješnom aktiviranju profila}}{50}{figure.5.10}\protected@file@percent }
\@writefile{lof}{\contentsline {figure}{\numberline {5.11}{\ignorespaces Ovako izgleda mapa nakon što se korisnik uspješno prijavi u sustav}}{51}{figure.5.11}\protected@file@percent }
\@writefile{lof}{\contentsline {figure}{\numberline {5.12}{\ignorespaces Registracija kartografa}}{52}{figure.5.12}\protected@file@percent }
\@writefile{lof}{\contentsline {figure}{\numberline {5.13}{\ignorespaces Obavijest o poslanom mailu za aktivaciju računa kartografa}}{53}{figure.5.13}\protected@file@percent }
\@writefile{lof}{\contentsline {figure}{\numberline {5.14}{\ignorespaces Kartograf može otvaranjem dobivenog linka aktivirati svoj korisnički račun}}{54}{figure.5.14}\protected@file@percent }
\@writefile{lof}{\contentsline {figure}{\numberline {5.15}{\ignorespaces Admin može prihvatiti ili odbiti novopridošlog kartografa}}{55}{figure.5.15}\protected@file@percent }
\@writefile{lof}{\contentsline {figure}{\numberline {5.16}{\ignorespaces Ovako izgleda mapa nakon što se kartograf uspješno prijavi u sustav}}{56}{figure.5.16}\protected@file@percent }
\@writefile{lof}{\contentsline {figure}{\numberline {5.17}{\ignorespaces Igrač, kartograf i admin mogu prijaviti novu lokaciju}}{57}{figure.5.17}\protected@file@percent }
\@writefile{lof}{\contentsline {figure}{\numberline {5.18}{\ignorespaces Korisnik koji je prijavio lokaciju dobiva potvrdu da je zahtjev za prijavom poslan}}{58}{figure.5.18}\protected@file@percent }
\@writefile{lof}{\contentsline {figure}{\numberline {5.19}{\ignorespaces Obavijest koju prima kartograf ili admin kako bi odobrio novoprijavljenu lokaciju}}{59}{figure.5.19}\protected@file@percent }
\@writefile{lof}{\contentsline {figure}{\numberline {5.20}{\ignorespaces Obavijest koju prima korisnik čija je lokacija prihvaćena}}{60}{figure.5.20}\protected@file@percent }
\@writefile{toc}{\contentsline {section}{\numberline {5.3}Dijagram razmještaja}{61}{section.5.3}\protected@file@percent }
\@writefile{lof}{\contentsline {figure}{\numberline {5.21}{\ignorespaces Dijagram razmještaja}}{61}{figure.5.21}\protected@file@percent }
\@writefile{toc}{\contentsline {section}{\numberline {5.4}Upute za puštanje u pogon}{62}{section.5.4}\protected@file@percent }
\@writefile{lof}{\contentsline {figure}{\numberline {5.22}{\ignorespaces HerokuPush.bat skripta}}{62}{figure.5.22}\protected@file@percent }
\@writefile{lof}{\contentsline {figure}{\numberline {5.23}{\ignorespaces Pokretanjem navedene skripte, izvršava se pokretanje}}{62}{figure.5.23}\protected@file@percent }
\@writefile{lof}{\contentsline {figure}{\numberline {5.24}{\ignorespaces Build aplikacije pomoću Heroku servera}}{63}{figure.5.24}\protected@file@percent }
\@setckpt{Implementacija}{
\setcounter{page}{64}
\setcounter{equation}{0}
\setcounter{enumi}{4}
\setcounter{enumii}{2}
\setcounter{enumiii}{0}
\setcounter{enumiv}{0}
\setcounter{footnote}{11}
\setcounter{mpfootnote}{0}
\setcounter{part}{0}
\setcounter{chapter}{5}
\setcounter{section}{4}
\setcounter{subsection}{0}
\setcounter{subsubsection}{0}
\setcounter{paragraph}{0}
\setcounter{subparagraph}{0}
\setcounter{figure}{24}
\setcounter{table}{0}
\setcounter{parentequation}{0}
\setcounter{LT@tables}{13}
\setcounter{LT@chunks}{3}
\setcounter{Item}{184}
\setcounter{Hfootnote}{11}
\setcounter{bookmark@seq@number}{22}
\setcounter{float@type}{4}
\setcounter{section@level}{0}
}
