\relax 
\providecommand\hyper@newdestlabel[2]{}
\@writefile{toc}{\contentsline {chapter}{Popis literature}{73}{chapter*.6}\protected@file@percent }
\@setckpt{Literatura}{
\setcounter{page}{74}
\setcounter{equation}{0}
\setcounter{enumi}{6}
\setcounter{enumii}{2}
\setcounter{enumiii}{0}
\setcounter{enumiv}{0}
\setcounter{footnote}{0}
\setcounter{mpfootnote}{0}
\setcounter{part}{0}
\setcounter{chapter}{6}
\setcounter{section}{0}
\setcounter{subsection}{0}
\setcounter{subsubsection}{0}
\setcounter{paragraph}{0}
\setcounter{subparagraph}{0}
\setcounter{figure}{0}
\setcounter{table}{1}
\setcounter{parentequation}{0}
\setcounter{LT@tables}{14}
\setcounter{LT@chunks}{5}
\setcounter{Item}{205}
\setcounter{Hfootnote}{11}
\setcounter{bookmark@seq@number}{26}
\setcounter{float@type}{4}
\setcounter{section@level}{0}
}
